<?xml version="1.0" encoding="utf-8"?>
<!-- Generator: Adobe Illustrator 27.0.0, SVG Export Plug-In . SVG Version: 6.00 Build 0)  -->
<svg version="1.1" id="Layer_1" xmlns="http://www.w3.org/2000/svg" xmlns:xlink="http://www.w3.org/1999/xlink" x="0px" y="0px"
	 viewBox="0 0 24 24" style="enable-background:new 0 0 24 24;" xml:space="preserve">
<style type="text/css">
	.st0{fill:#999999;}
</style>
<path class="st0" d="M20,10h-7V7h2c0.6,0,1-0.4,1-1V2c0-0.6-0.4-1-1-1H9C8.4,1,8,1.4,8,2v4c0,0.6,0.4,1,1,1h2v3H4c-1.1,0-2,0.9-2,2
	v3h2v-3h7v3h2v-3h7v3h2v-3C22,10.9,21.1,10,20,10z M10,5V3h4v2H10z M5,17H1c-0.6,0-1,0.4-1,1v4c0,0.6,0.4,1,1,1h4c0.6,0,1-0.4,1-1
	v-4C6,17.4,5.6,17,5,17z M4,21H2v-2h2V21z M23,17h-4c-0.6,0-1,0.4-1,1v4c0,0.6,0.4,1,1,1h4c0.6,0,1-0.4,1-1v-4
	C24,17.4,23.6,17,23,17z M22,21h-2v-2h2V21z M14,17h-4c-0.6,0-1,0.4-1,1v4c0,0.6,0.4,1,1,1h4c0.6,0,1-0.4,1-1v-4
	C15,17.4,14.6,17,14,17z M13,21h-2v-2h2V21z"/>
</svg>
