<svg width="24" height="24" viewBox="0 0 24 24" fill="none" xmlns="http://www.w3.org/2000/svg">
<g clip-path="url(#clip0_781_12667)">
<path d="M1.20821 17.2538C0.454222 15.708 0.0225968 13.976 0.000846795 12.1454C-0.077997 5.50509 5.35922 0 12 0C18.6274 0 24 5.37258 24 12C24 13.9114 23.5531 15.7185 22.758 17.3224C22.6085 17.6241 22.2981 17.8125 21.9613 17.8125H2.09939C1.71985 17.8125 1.37461 17.595 1.20821 17.2538Z" fill="#F5F95A"/>
<path d="M2.47029 17.3489C1.84465 16.0662 1.48648 14.6291 1.46848 13.1101C1.40304 7.60015 5.91466 3.03223 11.425 3.03223C16.9242 3.03223 21.3822 7.49023 21.3822 12.9895C21.3822 14.5755 21.0114 16.075 20.3517 17.4058C20.2276 17.6561 19.97 17.8125 19.6906 17.8125H3.20974C2.89479 17.8125 2.60834 17.632 2.47029 17.3489Z" fill="#FDFF9C"/>
<path d="M22.8205 17.1945C22.3584 18.1552 21.7721 19.045 21.0824 19.8429C20.9124 20.0396 20.6612 20.1505 20.4019 20.1317C19.5054 20.0667 18.5972 20.2458 17.7874 20.6835C17.2473 20.9755 16.6557 21.1366 16.0355 21.1366C15.4153 21.1366 14.8238 20.9756 14.2837 20.6836C12.8552 19.9114 11.1449 19.9114 9.71647 20.6836C9.17638 20.9756 8.58481 21.1366 7.96466 21.1366C7.3445 21.1366 6.75289 20.9756 6.21275 20.6835C5.55725 20.3292 4.8372 20.1444 4.11111 20.1212C3.46963 20.1008 2.86564 19.8085 2.47489 19.2994C1.97445 18.6473 1.53941 17.9424 1.17969 17.1945C1.32336 17.1397 1.46412 17.076 1.60166 17.0039C3.04892 16.2445 4.78447 16.2146 6.22489 16.9869C6.76175 17.2748 7.34914 17.4334 7.9647 17.4334C8.58486 17.4334 9.17642 17.2724 9.71652 16.9805C11.145 16.2083 12.8553 16.2083 14.2837 16.9805C14.8238 17.2724 15.4154 17.4334 16.0355 17.4334C16.6506 17.4334 17.2376 17.2751 17.7741 16.9876C19.2161 16.215 20.9523 16.2466 22.4015 17.0054C22.538 17.0769 22.6778 17.1401 22.8205 17.1945Z" fill="#2476ED"/>
<path d="M9.93848 11.1328C9.93848 11.327 9.78112 11.4844 9.58691 11.4844H5.68785L7.09757 14.7443C7.17407 14.9228 7.09138 15.1295 6.91293 15.206C6.86779 15.2253 6.82082 15.2345 6.77465 15.2345C6.63824 15.2345 6.50845 15.1546 6.45135 15.0213L4.92182 11.4844H3.49316C3.29896 11.4844 3.1416 11.327 3.1416 11.1328C3.1416 10.9386 3.29896 10.7812 3.49316 10.7812H9.58691C9.78112 10.7812 9.93848 10.9386 9.93848 11.1328Z" fill="#865B47"/>
<path d="M7.17778 2.83859C7.09341 3.36313 7.4416 3.85963 7.96346 3.95905C8.1938 4.00292 8.28085 4.28689 8.11463 4.45231C7.73808 4.82708 7.72791 5.43341 8.09166 5.8206C8.25221 5.9915 8.15574 6.27238 7.92403 6.30852C7.39913 6.39036 7.03449 6.87491 7.10124 7.40197C7.13067 7.63461 6.88749 7.80514 6.6788 7.69817C6.20602 7.45588 5.62622 7.63353 5.37038 8.09914C5.25746 8.30464 4.9605 8.29967 4.85452 8.09047C4.61447 7.61652 4.04096 7.4195 3.5603 7.64581C3.34814 7.7457 3.11081 7.56711 3.14803 7.3356C3.23241 6.81106 2.88422 6.31456 2.36236 6.21514C2.13202 6.17127 2.04497 5.8873 2.21119 5.72188C2.58774 5.34711 2.59791 4.74078 2.23416 4.35359C2.07361 4.18269 2.17008 3.90181 2.40178 3.86567C2.92669 3.78383 3.29133 3.29928 3.22463 2.77222C3.19519 2.53958 3.43838 2.36905 3.64706 2.47602C4.11985 2.71831 4.69964 2.54066 4.95549 2.07505C5.06841 1.86955 5.36536 1.87452 5.47135 2.08372C5.71139 2.55767 6.28491 2.75469 6.76556 2.52838C6.97772 2.42849 7.21505 2.60708 7.17778 2.83859Z" fill="#FFDE91"/>
<path d="M6.89487 5.08662C6.89487 6.04324 6.11937 6.81874 5.16274 6.81874C4.20612 6.81874 3.43066 6.04324 3.43066 5.08662C3.43066 4.12999 4.20616 3.35449 5.16279 3.35449C6.11941 3.35449 6.89487 4.12999 6.89487 5.08662Z" fill="#FFC14F"/>
<path d="M6.20207 5.08712C6.20207 5.6611 5.73678 6.12638 5.1628 6.12638C4.58882 6.12638 4.12354 5.6611 4.12354 5.08712C4.12354 4.51313 4.58882 4.04785 5.1628 4.04785C5.73678 4.04785 6.20207 4.51318 6.20207 5.08712Z" fill="#FFA90B"/>
<path d="M18.099 16.2891L16.2421 13.9219L14.7119 1.28906H21.0023L21.876 6.31317C22.5308 10.0785 21.0834 13.9016 18.099 16.2891Z" fill="#FF3D00"/>
<path d="M9.13756 20.9243C9.09973 20.9372 9.06125 20.9434 9.02337 20.9434C8.87736 20.9434 8.74095 20.8517 8.69089 20.7059L7.18494 16.3181L5.73373 20.7022C5.68484 20.8499 5.54745 20.9435 5.40003 20.9435C5.36342 20.9435 5.3262 20.9377 5.28954 20.9255C5.10519 20.8645 5.00525 20.6656 5.06623 20.4813L6.80079 15.2412C6.85465 15.0784 7.01604 14.9814 7.18001 15.003C7.34225 14.9819 7.50237 15.0768 7.55754 15.2375L9.356 20.4776C9.419 20.6613 9.32122 20.8612 9.13756 20.9243Z" fill="#865B47"/>
<path d="M11.1909 1.28906H21.0347L17.7534 15.8203H7.90967C9.1984 11.2137 10.2612 6.5468 11.0941 1.83642L11.1909 1.28906Z" fill="#FFE89C"/>
<path d="M9.37521 15.8203H7.90967C9.1984 11.2137 10.2612 6.5468 11.0941 1.83637L11.1909 1.28906H12.6565L12.5597 1.83637C11.7267 6.54675 10.6639 11.2136 9.37521 15.8203Z" fill="#FF3D00"/>
<path d="M18.2222 1.28906L18.1254 1.83642C17.2924 6.5468 16.2297 11.2137 14.9409 15.8203V15.8203H10.7222C12.0109 11.2137 13.0737 6.54689 13.9066 1.83647L14.0034 1.28906H18.2222Z" fill="#FF3D00"/>
<path d="M21.3862 1.28906C21.3862 1.48327 21.2289 1.64062 21.0347 1.64062H11.1909C10.9967 1.64062 10.8394 1.48327 10.8394 1.28906C10.8394 1.09486 10.9967 0.9375 11.1909 0.9375H21.0347C21.2289 0.9375 21.3862 1.09486 21.3862 1.28906Z" fill="#FFCD71"/>
<path d="M16.8159 16.7578H5.09717C4.57939 16.7578 4.15967 16.3381 4.15967 15.8203C4.15967 15.3025 4.57939 14.8828 5.09717 14.8828H17.7534L16.8159 16.7578Z" fill="#FCF2B6"/>
<path d="M7.47753 16.7578H5.09717C4.57939 16.7578 4.15967 16.3381 4.15967 15.8203C4.15967 15.3025 4.57939 14.8828 5.09717 14.8828H7.47753C6.95975 14.8828 6.54003 15.3025 6.54003 15.8203C6.54003 16.3381 6.95979 16.7578 7.47753 16.7578Z" fill="#FFE89C"/>
<path d="M21.5034 10.7813H18.9C18.895 10.7812 18.89 10.7812 18.8851 10.7813H12.5972C12.403 10.7813 12.2456 10.9387 12.2456 11.1329C12.2456 11.3271 12.403 11.4844 12.5972 11.4844H15.7266L17.1235 15.3578L15.4276 20.4813C15.3665 20.6656 15.4665 20.8645 15.6509 20.9255C15.6875 20.9376 15.7248 20.9434 15.7614 20.9434C15.9088 20.9434 16.0462 20.8499 16.0951 20.7022L17.5097 16.4286L19.0523 20.7059C19.1023 20.8517 19.2387 20.9434 19.3848 20.9434C19.4226 20.9434 19.4611 20.9372 19.499 20.9243C19.6826 20.8612 19.7804 20.6613 19.7173 20.4776L17.8674 15.3481L19.1463 11.4844H21.5035C21.6977 11.4844 21.855 11.3271 21.855 11.1329C21.855 10.9387 21.6976 10.7813 21.5034 10.7813ZM17.4812 14.2773L16.474 11.4844H18.4056L17.4812 14.2773Z" fill="#865B47"/>
<path d="M21.1575 19.7556C18.9563 22.352 15.6707 24 12.0002 24C8.07454 24 4.5892 22.115 2.3999 19.2007C2.75217 18.9863 3.13903 18.7995 3.56268 18.6562C5.77771 17.9071 6.78707 19.0952 10.1252 19.4531C14.981 19.9737 16.6219 17.8646 20.1564 19.3125C20.4046 19.4141 20.7708 19.5641 21.1575 19.7556Z" fill="#FFDE91"/>
<path d="M11.9407 23.9998C8.03939 23.9809 4.57818 22.1003 2.3999 19.2008C2.75221 18.9863 3.13907 18.7995 3.56273 18.6562C5.05064 18.153 5.99456 18.5239 7.46573 18.9302C7.24889 18.9693 7.02229 19.0279 6.7815 19.1093C6.77728 19.1108 6.77301 19.1122 6.76879 19.1136C6.14714 19.3255 5.95748 20.1121 6.40317 20.5945C7.88053 22.1935 9.78749 23.3897 11.9407 23.9998Z" fill="#FFCD71"/>
<path d="M7.36377 20.8781C7.36377 21.137 7.15391 21.3469 6.89502 21.3469C6.63613 21.3469 6.42627 21.137 6.42627 20.8781C6.42627 20.6192 6.63613 20.4094 6.89502 20.4094C7.15391 20.4094 7.36377 20.6192 7.36377 20.8781ZM13.5538 21.7782C13.295 21.7782 13.0851 21.9881 13.0851 22.247C13.0851 22.5059 13.295 22.7157 13.5538 22.7157C13.8127 22.7157 14.0226 22.5059 14.0226 22.247C14.0226 21.9881 13.8127 21.7782 13.5538 21.7782ZM17.4396 19.7305C17.1808 19.7305 16.9709 19.9403 16.9709 20.1992C16.9709 20.4581 17.1808 20.668 17.4396 20.668C17.6985 20.668 17.9084 20.4581 17.9084 20.1992C17.9084 19.9403 17.6985 19.7305 17.4396 19.7305ZM8.20082 21.7782C7.94193 21.7782 7.73207 21.9881 7.73207 22.247C7.73207 22.5059 7.94193 22.7157 8.20082 22.7157C8.45971 22.7157 8.66957 22.5059 8.66957 22.247C8.66957 21.9881 8.45971 21.7782 8.20082 21.7782ZM11.4251 20.1992C11.1662 20.1992 10.9564 20.4091 10.9564 20.668C10.9564 20.9269 11.1662 21.1367 11.4251 21.1367C11.684 21.1367 11.8939 20.9269 11.8939 20.668C11.8939 20.4091 11.684 20.1992 11.4251 20.1992Z" fill="#E4AB45"/>
</g>
<defs>
<clipPath id="clip0_781_12667">
<rect width="24" height="24" fill="white"/>
</clipPath>
</defs>
</svg>
